Michael	Baldinger	19	30	2021
Rodney	Belcher	19	34	2021
Dane	Brautigam	20	24	2021
Addison	Brown	20	30	2021
Caelan	Brown	20	39	2021
Samuel	Butler	21	05	2021
Yujun	Chow	19	18	2021
Ryan	Clendening	20	09	2021
Christopher	Collins	19	08	2021
Hannah	Compton	19	12	2021
Cameron	Conrad	23	02	2021
Emily	Conroe	21	03	2021
Jacob	Croall	23	06	2021
Scott	Culbreth	20	21	2021
Jed	Cutter	19	03	2021
Jodi	Dalton	20	31	2021
Theodore	Drewes	19	17	2021
Jared	Erickson	19	39	2021
Patrick	Gabriel	20	03	2021
Jesse	Galloway	19	37	2021
Anthony	Gomez	20	33	2021
Josiah	Goosen	20	19	2021
Charles	Goss	19	29	2021
Natalie	Graser	19	38	2021
Kaitlyn	Guo	19	23	2021
Tyler	Gurchiek	20	09	2021
Matthew	Hageman	21	28	2021
Cristian	Hanciuc	21	15	2021
Andrew	Helms	19	05	2021
Garrison	Hill	19	26	2021
Ethan	Isaacson	19	19	2021
Zachary	Kennison	19	13	2021
Christopher	Kim	20	21	2021
Ryan	Kirk	20	04	2021
Caden	Kulp	19	26	2021
Adda	Lantigua	20	08	2021
Trey	LaRock	19	17	2021
Andrew	Lemke	20	25	2021
Michael	Leonard	19	06	2021
Nathan	Lervold	20	29	2021
Benjamin	Lesko	19	39	2021
Kimberly	Lewis	19	02	2021
Zachery	Lorch	20	31	2021
Hunter	Manter	19	14	2021
Thomas	McCurdy	20	06	2021
Alec	McGahee	19	26	2021
Daniel	Mecca	19	27	2021
Cameron	Miclette	19	28	2021
Brett	Miller	19	33	2021
Devarsh	Modh	20	04	2021
Jonathan	Nash	20	02	2021
Vernon	Nazareno	24	07	2021
Nathan	Oh	20	05	2021
Camryn	Olhausen	19	09	2021
Alexander	Pak	20	15	2021
Peter	Park	20	25	2021
Andrew	Pecha	19	05	2021
Terence	Perkins	20	09	2021
Shamus	Phelan	19	36	2021
Roman	Philson	19	05	2021
Jonathan	Price	20	37	2021
Martin	Ramirez Perez	20	40	2021
Saideep	Reddy	20	26	2021
Daniel	Reinfurt	20	36	2021
Armani	Resto	20	01	2021
Caleb	Richardson	19	35	2021
Manuel	Riolo	20	11	2021
Luke	Ruan	19	17	2021
Brooke	Schumacher	20	20	2021
Alexis	Shirley	19	12	2021
Michael	Shumate	19	35	2021
Jesse	Sidhu	20	08	2021
Calvin	Smith	20	31	2021
Sharina	Stayton	20	03	2021
Alexander	Strickland	19	35	2021
Brynn	Sulte	19	14	2021
Alexander	Tarbet	19	40	2021
Benjamin	Taylor	19	01	2021
David	Thacker	19	11	2021
John-Paul	Thompson	20	12	2021
Jelani	Washington	20	06	2021
Jackson	Weyhe	20	08	2021
Lance	White	20	27	2021
Addison	Whitney	19	18	2021
Cullen	Wojewodka	20	38	2021
Jared	Wortham	19	10	2021
Richard	Worthy	20	20	2021
William	Yingst	19	21	2021